C:\Users\bruker\School\dat219\kvizzit\KvizzIt
--output-path=obj\Release\netcoreapp2.0\
--application-name=KvizzIt
--content-root=C:\Users\bruker\School\dat219\kvizzit\KvizzIt
--file=C:\Users\bruker\School\dat219\kvizzit\KvizzIt\Views\Home\Browse.cshtml
--file=C:\Users\bruker\School\dat219\kvizzit\KvizzIt\Views\Home\Browse2.cshtml
--file=C:\Users\bruker\School\dat219\kvizzit\KvizzIt\Views\Home\CreateQuiz.cshtml
--file=C:\Users\bruker\School\dat219\kvizzit\KvizzIt\Views\Home\CreateQuiz2.cshtml
--file=C:\Users\bruker\School\dat219\kvizzit\KvizzIt\Views\Home\FAQ.cshtml
--file=C:\Users\bruker\School\dat219\kvizzit\KvizzIt\Views\Home\Index.cshtml
--file=C:\Users\bruker\School\dat219\kvizzit\KvizzIt\Views\Home\Login.cshtml
--file=C:\Users\bruker\School\dat219\kvizzit\KvizzIt\Views\Home\QuizInfo.cshtml
--file=C:\Users\bruker\School\dat219\kvizzit\KvizzIt\Views\Home\TakeQuiz.cshtml
--file=C:\Users\bruker\School\dat219\kvizzit\KvizzIt\Views\Home\Test.cshtml
--file=C:\Users\bruker\School\dat219\kvizzit\KvizzIt\Views\Shared\Error.cshtml
--file=C:\Users\bruker\School\dat219\kvizzit\KvizzIt\Views\Shared\_Layout.cshtml
--file=C:\Users\bruker\School\dat219\kvizzit\KvizzIt\Views\Shared\_ValidationScriptsPartial.cshtml
--file=C:\Users\bruker\School\dat219\kvizzit\KvizzIt\Views\_ViewImports.cshtml
--file=C:\Users\bruker\School\dat219\kvizzit\KvizzIt\Views\_ViewStart.cshtml
